{
  "stats": {
    "suites": 4,
    "tests": 4,
    "passes": 3,
    "pending": 0,
    "failures": 1,
    "start": "2020-11-18T22:35:27.806Z",
    "end": "2020-11-18T22:35:47.559Z",
    "duration": 14398,
    "testsRegistered": 4,
    "passPercent": 75,
    "pendingPercent": 0,
    "other": 0,
    "hasOther": false,
    "skipped": 0,
    "hasSkipped": false
  },
  "results": [
    {
      "uuid": "926d2c68-8128-4c58-8cb1-d7379592b150",
      "title": "",
      "fullFile": "cypress\\integration\\dev\\pagespeed.spec.js",
      "file": "cypress\\integration\\dev\\pagespeed.spec.js",
      "beforeHooks": [],
      "afterHooks": [],
      "tests": [],
      "suites": [
        {
          "uuid": "9073cd18-ebc2-46b0-94f5-e239bf33ac42",
          "title": "Performance Metrics for http://bmartin.dev.dealerfire.com",
          "fullFile": "",
          "file": "",
          "beforeHooks": [],
          "afterHooks": [],
          "tests": [
            {
              "title": "Homepage loads in under 5 seconds",
              "fullTitle": "Performance Metrics for http://bmartin.dev.dealerfire.com Homepage loads in under 5 seconds",
              "timedOut": null,
              "duration": 1431,
              "state": "passed",
              "speed": "slow",
              "pass": true,
              "fail": false,
              "pending": false,
              "context": null,
              "code": "cy.lighthouse({\n  performance: 1,\n  'first-meaningful-paint': 5000 // homepage should load in 5 seconds\n});",
              "err": {},
              "uuid": "c88a22e6-2bed-4333-98a7-cf71db1ea929",
              "parentUUID": "9073cd18-ebc2-46b0-94f5-e239bf33ac42",
              "isHook": false,
              "skipped": false
            }
          ],
          "suites": [],
          "passes": [
            "c88a22e6-2bed-4333-98a7-cf71db1ea929"
          ],
          "failures": [],
          "pending": [],
          "skipped": [],
          "duration": 1431,
          "root": false,
          "rootEmpty": false,
          "_timeout": 2000
        }
      ],
      "passes": [],
      "failures": [],
      "pending": [],
      "skipped": [],
      "duration": 0,
      "root": true,
      "rootEmpty": true,
      "_timeout": 2000
    },
    {
      "uuid": "a7ff4e83-32fd-4260-8828-76daa0104e02",
      "title": "",
      "fullFile": "cypress\\integration\\dev\\srp.spec.js",
      "file": "cypress\\integration\\dev\\srp.spec.js",
      "beforeHooks": [],
      "afterHooks": [],
      "tests": [],
      "suites": [
        {
          "uuid": "e8c4251f-0ecd-4730-9110-f5b81cec61c8",
          "title": "SRP - http://bmartin.dev.dealerfire.com/inventory",
          "fullFile": "",
          "file": "",
          "beforeHooks": [],
          "afterHooks": [],
          "tests": [
            {
              "title": "SRP should have one and only one h1 tag",
              "fullTitle": "SRP - http://bmartin.dev.dealerfire.com/inventory SRP should have one and only one h1 tag",
              "timedOut": null,
              "duration": 1703,
              "state": "passed",
              "speed": "slow",
              "pass": true,
              "fail": false,
              "pending": false,
              "context": null,
              "code": "cy.get('h1').should('exist').and('have.length', 1);",
              "err": {},
              "uuid": "8c0b8305-aec8-4d34-a849-9e673421e229",
              "parentUUID": "e8c4251f-0ecd-4730-9110-f5b81cec61c8",
              "isHook": false,
              "skipped": false
            }
          ],
          "suites": [],
          "passes": [
            "8c0b8305-aec8-4d34-a849-9e673421e229"
          ],
          "failures": [],
          "pending": [],
          "skipped": [],
          "duration": 1703,
          "root": false,
          "rootEmpty": false,
          "_timeout": 2000
        }
      ],
      "passes": [],
      "failures": [],
      "pending": [],
      "skipped": [],
      "duration": 0,
      "root": true,
      "rootEmpty": true,
      "_timeout": 2000
    },
    {
      "uuid": "5378a44b-9ccd-4349-9fb6-e0a89731ee40",
      "title": "",
      "fullFile": "cypress\\integration\\dev\\vdp.spec.js",
      "file": "cypress\\integration\\dev\\vdp.spec.js",
      "beforeHooks": [],
      "afterHooks": [],
      "tests": [],
      "suites": [
        {
          "uuid": "21186a7c-eb15-45de-ac07-0a9962b3e037",
          "title": "VDP - http://bmartin.dev.dealerfire.com",
          "fullFile": "",
          "file": "",
          "beforeHooks": [],
          "afterHooks": [],
          "tests": [
            {
              "title": "VDP should have one and only one h1 tag",
              "fullTitle": "VDP - http://bmartin.dev.dealerfire.com VDP should have one and only one h1 tag",
              "timedOut": null,
              "duration": 4018,
              "state": "passed",
              "speed": "slow",
              "pass": true,
              "fail": false,
              "pending": false,
              "context": null,
              "code": "cy.get('h1').should('exist').and('have.length', 1);",
              "err": {},
              "uuid": "0de61fc8-1fe0-4e6b-a73e-9b42a9d337e5",
              "parentUUID": "21186a7c-eb15-45de-ac07-0a9962b3e037",
              "isHook": false,
              "skipped": false
            }
          ],
          "suites": [],
          "passes": [
            "0de61fc8-1fe0-4e6b-a73e-9b42a9d337e5"
          ],
          "failures": [],
          "pending": [],
          "skipped": [],
          "duration": 4018,
          "root": false,
          "rootEmpty": false,
          "_timeout": 2000
        }
      ],
      "passes": [],
      "failures": [],
      "pending": [],
      "skipped": [],
      "duration": 0,
      "root": true,
      "rootEmpty": true,
      "_timeout": 2000
    },
    {
      "uuid": "acdfc0c9-98ff-48d9-a35f-045b2a2904e7",
      "title": "",
      "fullFile": "cypress\\integration\\dev\\homepage.spec.js",
      "file": "cypress\\integration\\dev\\homepage.spec.js",
      "beforeHooks": [],
      "afterHooks": [],
      "tests": [],
      "suites": [
        {
          "uuid": "92a1371d-0031-415d-9399-a4210d11932d",
          "title": "Homepage - http://bmartin.dev.dealerfire.com",
          "fullFile": "",
          "file": "",
          "beforeHooks": [],
          "afterHooks": [],
          "tests": [
            {
              "title": "Homepage should have one and only one h1 tag",
              "fullTitle": "Homepage - http://bmartin.dev.dealerfire.com Homepage should have one and only one h1 tag",
              "timedOut": null,
              "duration": 7246,
              "state": "failed",
              "speed": null,
              "pass": false,
              "fail": true,
              "pending": false,
              "context": "\"screenshots/dev\\\\homepage.spec.js/Homepage - http://bmartin.dev.dealerfire.com -- Homepage should have one and only one h1 tag (failed).png\"",
              "code": "cy.get('h1').should('exist').and('have.length', 1);",
              "err": {
                "message": "AssertionError: Timed out retrying: Expected to find element: `h1`, but never found it.",
                "estack": "AssertionError: Timed out retrying: Expected to find element: `h1`, but never found it.\n    at Context.eval (http://bmartin.dev.dealerfire.com/__cypress/tests?p=cypress\\integration\\dev\\homepage.spec.js:105:18)",
                "diff": null
              },
              "uuid": "a6816031-a24c-4d08-b84a-b54687327b1a",
              "parentUUID": "92a1371d-0031-415d-9399-a4210d11932d",
              "isHook": false,
              "skipped": false
            }
          ],
          "suites": [],
          "passes": [],
          "failures": [
            "a6816031-a24c-4d08-b84a-b54687327b1a"
          ],
          "pending": [],
          "skipped": [],
          "duration": 7246,
          "root": false,
          "rootEmpty": false,
          "_timeout": 2000
        }
      ],
      "passes": [],
      "failures": [],
      "pending": [],
      "skipped": [],
      "duration": 0,
      "root": true,
      "rootEmpty": true,
      "_timeout": 2000
    }
  ],
  "meta": {
    "mocha": {
      "version": "7.0.1"
    },
    "mochawesome": {
      "options": {
        "quiet": true,
        "reportFilename": "mochawesome",
        "saveHtml": false,
        "saveJson": true,
        "consoleReporter": "spec",
        "useInlineDiffs": false,
        "code": true
      },
      "version": "6.1.1"
    },
    "marge": {
      "options": {
        "id": "default",
        "reportDir": "cypress/reports/mocha",
        "quiet": true,
        "overwrite": false,
        "html": false,
        "json": true
      },
      "version": "5.1.0"
    }
  }
}